<svg width="402" height="400" xmlns="http://www.w3.org/2000/svg">
 <!-- Created with Method Draw - http://github.com/duopixel/Method-Draw/ -->
 <g>
  <title>background</title>
  <rect fill="#ffffff" id="canvas_background" height="402" width="404" y="-1" x="-1"/>
 </g>
 <g>
  <title>Layer 1</title>
  <rect transform="rotate(45 201,200) " stroke="#000" id="svg_5" height="35.683453" width="619.999989" y="182.158274" x="-109" stroke-opacity="null" fill="#000000"/>
  <rect transform="rotate(-45 201,200) " stroke="#000" id="svg_6" height="35.683453" width="619.999989" y="182.15827" x="-109.000004" stroke-opacity="null" fill="#000000"/>
 </g>
</svg>